Final Project
…
housing_data <- read_csv("data/Zip_zhvi_uc_sfrcondo_tier_0.33_0.67_sm_sa_month.csv")

## Rows: 27317 Columns: 276
## -- Column specification --------------------------------------------------------
## Delimiter: ","
## chr   (7): RegionName, RegionType, StateName, State, City, Metro, CountyName
## dbl (269): RegionID, SizeRank, 2000-01-31, 2000-02-29, 2000-03-31, 2000-04-3...
## 
## i Use `spec()` to retrieve the full column specification for this data.
## i Specify the column types or set `show_col_types = FALSE` to quiet this message.

housing_data

## # A tibble: 27,317 x 276
##    RegionID SizeRank RegionName RegionType StateName State City     Metro       
##       <dbl>    <dbl> <chr>      <chr>      <chr>     <chr> <chr>    <chr>       
##  1    61639        0 10025      Zip        NY        NY    New York New York-Ne~
##  2    84654        1 60657      Zip        IL        IL    Chicago  Chicago-Nap~
##  3    61637        2 10023      Zip        NY        NY    New York New York-Ne~
##  4    91982        3 77494      Zip        TX        TX    Katy     Houston-The~
##  5    84616        4 60614      Zip        IL        IL    Chicago  Chicago-Nap~
##  6    91940        5 77449      Zip        TX        TX    Katy     Houston-The~
##  7    61616        6 10002      Zip        NY        NY    New York New York-Ne~
##  8    91733        7 77084      Zip        TX        TX    Houston  Houston-The~
##  9    93144        8 79936      Zip        TX        TX    El Paso  El Paso     
## 10    84640        9 60640      Zip        IL        IL    Chicago  Chicago-Nap~
## # ... with 27,307 more rows, and 268 more variables: CountyName <chr>,
## #   2000-01-31 <dbl>, 2000-02-29 <dbl>, 2000-03-31 <dbl>, 2000-04-30 <dbl>,
## #   2000-05-31 <dbl>, 2000-06-30 <dbl>, 2000-07-31 <dbl>, 2000-08-31 <dbl>,
## #   2000-09-30 <dbl>, 2000-10-31 <dbl>, 2000-11-30 <dbl>, 2000-12-31 <dbl>,
## #   2001-01-31 <dbl>, 2001-02-28 <dbl>, 2001-03-31 <dbl>, 2001-04-30 <dbl>,
## #   2001-05-31 <dbl>, 2001-06-30 <dbl>, 2001-07-31 <dbl>, 2001-08-31 <dbl>,
## #   2001-09-30 <dbl>, 2001-10-31 <dbl>, 2001-11-30 <dbl>, 2001-12-31 <dbl>, ...
…
housing_data_longer <- housing_data_longer %>%
  filter(is.na(HomeValue) == FALSE)

housing_data_longer$Date <- lubridate::ymd(housing_data_longer$Date)

housing_data_longer

## # A tibble: 5,496,178 x 10
##    RegionID SizeRank RegionName RegionType State City     Metro      CountyName 
##       <dbl>    <dbl> <chr>      <chr>      <chr> <chr>    <chr>      <chr>      
##  1    61639        0 10025      Zip        NY    New York New York-~ New York C~
##  2    61639        0 10025      Zip        NY    New York New York-~ New York C~
##  3    61639        0 10025      Zip        NY    New York New York-~ New York C~
##  4    61639        0 10025      Zip        NY    New York New York-~ New York C~
##  5    61639        0 10025      Zip        NY    New York New York-~ New York C~
##  6    61639        0 10025      Zip        NY    New York New York-~ New York C~
##  7    61639        0 10025      Zip        NY    New York New York-~ New York C~
##  8    61639        0 10025      Zip        NY    New York New York-~ New York C~
##  9    61639        0 10025      Zip        NY    New York New York-~ New York C~
## 10    61639        0 10025      Zip        NY    New York New York-~ New York C~
## # ... with 5,496,168 more rows, and 2 more variables: Date <date>,
## #   HomeValue <dbl>
…
## `summarise()` has grouped output by 'State'. You can override using the
## `.groups` argument.

pandemic_housing <- housing_jan_2020 %>%
  inner_join(housing_march_2022, by = 'State', suffix = c("_jan", "_mar"))

pandemic_housing <- pandemic_housing %>%
  mutate(
    percent_change = ((avg_value_mar-avg_value_jan)/avg_value_jan) * 100
  )

pandemic_housing

## # A tibble: 51 x 6
## # Groups:   State [51]
##    State Date_jan   avg_value_jan Date_mar   avg_value_mar percent_change
##    <chr> <date>             <dbl> <date>             <dbl>          <dbl>
##  1 AK    2020-01-31       268123. 2022-03-31       295374.           10.2
##  2 AL    2020-01-31       133447. 2022-03-31       171796.           28.7
##  3 AR    2020-01-31       103288. 2022-03-31       129796.           25.7
##  4 AZ    2020-01-31       266826. 2022-03-31       407196.           52.6
##  5 CA    2020-01-31       664717. 2022-03-31       877880.           32.1
##  6 CO    2020-01-31       374253. 2022-03-31       514611.           37.5
##  7 CT    2020-01-31       318743. 2022-03-31       418428.           31.3
##  8 DC    2020-01-31       670203. 2022-03-31       744928.           11.1
##  9 DE    2020-01-31       273582. 2022-03-31       362498.           32.5
## 10 FL    2020-01-31       262442. 2022-03-31       383522.           46.1
## # ... with 41 more rows
…
inventory <- read_csv("data/Metro_invt_fs_uc_sfrcondo_sm_month.csv")

## Rows: 917 Columns: 56
## -- Column specification --------------------------------------------------------
## Delimiter: ","
## chr  (3): RegionName, RegionType, StateName
## dbl (53): RegionID, SizeRank, 2018-01-31, 2018-02-28, 2018-03-31, 2018-04-30...
## 
## i Use `spec()` to retrieve the full column specification for this data.
## i Specify the column types or set `show_col_types = FALSE` to quiet this message.

inventory

## # A tibble: 917 x 56
##    RegionID SizeRank RegionName   RegionType StateName `2018-01-31` `2018-02-28`
##       <dbl>    <dbl> <chr>        <chr>      <chr>            <dbl>        <dbl>
##  1   102001        0 United Stat~ Country    <NA>           1426017      1383431
##  2   394913        1 New York, NY Msa        NY               68860        68409
##  3   753899        2 Los Angeles~ Msa        CA               20024        19857
##  4   394463        3 Chicago, IL  Msa        IL               42654        40975
##  5   394514        4 Dallas-Fort~ Msa        TX               24279        23203
##  6   394974        5 Philadelphi~ Msa        PA               26468        25031
##  7   394692        6 Houston, TX  Msa        TX               33594        32737
##  8   395209        7 Washington,~ Msa        DC               22361        21077
##  9   394856        8 Miami-Fort ~ Msa        FL               60382        61978
## 10   394347        9 Atlanta, GA  Msa        GA               29702        28586
## # ... with 907 more rows, and 49 more variables: 2018-03-31 <dbl>,
## #   2018-04-30 <dbl>, 2018-05-31 <dbl>, 2018-06-30 <dbl>, 2018-07-31 <dbl>,
## #   2018-08-31 <dbl>, 2018-09-30 <dbl>, 2018-10-31 <dbl>, 2018-11-30 <dbl>,
## #   2018-12-31 <dbl>, 2019-01-31 <dbl>, 2019-02-28 <dbl>, 2019-03-31 <dbl>,
## #   2019-04-30 <dbl>, 2019-05-31 <dbl>, 2019-06-30 <dbl>, 2019-07-31 <dbl>,
## #   2019-08-31 <dbl>, 2019-09-30 <dbl>, 2019-10-31 <dbl>, 2019-11-30 <dbl>,
## #   2019-12-31 <dbl>, 2020-01-31 <dbl>, 2020-02-29 <dbl>, 2020-03-31 <dbl>, ...
inventory_longer <- inventory %>%
  pivot_longer(
    cols = -c(RegionID, SizeRank, RegionName, RegionType, StateName), 
    names_to = "Date",
    values_to = "inventory_level"
  )

inventory_longer <- inventory_longer %>%
  filter(is.na(StateName) == FALSE)

inventory_longer$Date <- lubridate::ymd(inventory_longer$Date)

inventory_longer

## # A tibble: 46,716 x 7
##    RegionID SizeRank RegionName  RegionType StateName Date       inventory_level
##       <dbl>    <dbl> <chr>       <chr>      <chr>     <date>               <dbl>
##  1   394913        1 New York, ~ Msa        NY        2018-01-31           68860
##  2   394913        1 New York, ~ Msa        NY        2018-02-28           68409
##  3   394913        1 New York, ~ Msa        NY        2018-03-31           72901
##  4   394913        1 New York, ~ Msa        NY        2018-04-30           79816
##  5   394913        1 New York, ~ Msa        NY        2018-05-31           85836
##  6   394913        1 New York, ~ Msa        NY        2018-06-30           90364
##  7   394913        1 New York, ~ Msa        NY        2018-07-31           92447
##  8   394913        1 New York, ~ Msa        NY        2018-08-31           91918
##  9   394913        1 New York, ~ Msa        NY        2018-09-30           90658
## 10   394913        1 New York, ~ Msa        NY        2018-10-31           89828
## # ... with 46,706 more rows
…
## `summarise()` has grouped output by 'StateName'. You can override using the
## `.groups` argument.

pandemic_inventory <- inventory_jan_2020 %>%
  inner_join(inventory_march_2022, by = 'StateName', suffix = c("_jan", "_mar"))

pandemic_inventory <- pandemic_inventory %>%
  mutate(
    percentage_change = ((avg_inventory_mar-avg_inventory_jan)/avg_inventory_jan) * 100
  )

pandemic_inventory

## # A tibble: 51 x 6
## # Groups:   StateName [51]
##    StateName Date_jan   avg_inventory_jan Date_mar   avg_inventory_mar
##    <chr>     <date>                 <dbl> <date>                 <dbl>
##  1 AK        2020-01-31              528. 2022-03-31              249.
##  2 AL        2020-01-31             1133. 2022-03-31              577.
##  3 AR        2020-01-31              708. 2022-03-31              321.
##  4 AZ        2020-01-31             3109. 2022-03-31             2041.
##  5 CA        2020-01-31             2506. 2022-03-31             1556.
##  6 CO        2020-01-31             1587. 2022-03-31              740.
##  7 CT        2020-01-31             3319. 2022-03-31             1226.
##  8 DC        2020-01-31            18247  2022-03-31            11730 
##  9 DE        2020-01-31             2931  2022-03-31             1140.
## 10 FL        2020-01-31             6512. 2022-03-31             2709.
## # ... with 41 more rows, and 1 more variable: percentage_change <dbl>
…
mortgage_ir <- mortgage_ir %>%
  rename(mortgage_ir_30year = MORTGAGE30US) %>%
  rename(date = DATE)

mortgage_ir

## # A tibble: 2,665 x 2
##    date       mortgage_ir_30year
##    <date>                  <dbl>
##  1 1971-04-02               7.33
##  2 1971-04-09               7.31
##  3 1971-04-16               7.31
##  4 1971-04-23               7.31
##  5 1971-04-30               7.29
##  6 1971-05-07               7.38
##  7 1971-05-14               7.42
##  8 1971-05-21               7.44
##  9 1971-05-28               7.46
## 10 1971-06-04               7.52
## # ... with 2,655 more rows
…
pandemic_housing_final <- pandemic_housing_final %>%
  mutate(
    monthly_payment_jan = pmt((jan_rate/100)/12, 30*12, avg_mortgage_jan, 0),
    monthly_payment_mar = pmt((mar_rate/100)/12, 30*12, avg_mortgage_mar, 0),
    payment_difference = monthly_payment_jan - monthly_payment_mar,
    mortgage_proportion_wages_jan = ((abs(monthly_payment_jan)*12)/annual_2020_wages)*100,
    mortgage_proportion_wages_mar = ((abs(monthly_payment_mar)*12)/annual_2021_wages)*100,
    budget_change_as_proportion_of_wages = mortgage_proportion_wages_mar - mortgage_proportion_wages_jan
  )

pandemic_housing_final

## # A tibble: 50 x 23
## # Groups:   State [50]
##    State Date_jan   avg_value_jan Date_mar   avg_value_mar percent_change_price
##    <chr> <date>             <dbl> <date>             <dbl>                <dbl>
##  1 AK    2020-01-31       268123. 2022-03-31       295374.                 10.2
##  2 AL    2020-01-31       133447. 2022-03-31       171796.                 28.7
##  3 AR    2020-01-31       103288. 2022-03-31       129796.                 25.7
##  4 AZ    2020-01-31       266826. 2022-03-31       407196.                 52.6
##  5 CA    2020-01-31       664717. 2022-03-31       877880.                 32.1
##  6 CO    2020-01-31       374253. 2022-03-31       514611.                 37.5
##  7 CT    2020-01-31       318743. 2022-03-31       418428.                 31.3
##  8 DE    2020-01-31       273582. 2022-03-31       362498.                 32.5
##  9 FL    2020-01-31       262442. 2022-03-31       383522.                 46.1
## 10 GA    2020-01-31       176306. 2022-03-31       239172.                 35.7
## # ... with 40 more rows, and 17 more variables: avg_mortgage_jan <dbl>,
## #   avg_mortgage_mar <dbl>, jan_rate <dbl>, mar_rate <dbl>, state_name <chr>,
## #   percent_change_wage <dbl>, september_2020_avg_weekly_wages_dollars <dbl>,
## #   september_2021_avg_weekly_wages_dollars <dbl>, net_change_dollars <dbl>,
## #   annual_2020_wages <dbl>, annual_2021_wages <dbl>,
## #   monthly_payment_jan <dbl>, monthly_payment_mar <dbl>,
## #   payment_difference <dbl>, mortgage_proportion_wages_jan <dbl>, ...
…
mortgage_prop_wage <- pandemic_housing_final %>%
  select(state_name, mortgage_proportion_wages_jan, mortgage_proportion_wages_mar, budget_change_as_proportion_of_wages) %>%
  arrange(desc(budget_change_as_proportion_of_wages))

## Adding missing grouping variables: `State`

mortgage_prop_wage

## # A tibble: 50 x 5
## # Groups:   State [50]
##    State state_name   mortgage_proportio~ mortgage_proporti~ budget_change_as_p~
##    <chr> <chr>                      <dbl>              <dbl>               <dbl>
##  1 HI    Hawaii                      46.0               68.6                22.6
##  2 UT    Utah                        28.1               43.9                15.8
##  3 CA    California                  37.7               53.1                15.5
##  4 ID    Idaho                       26.0               40.7                14.7
##  5 MT    Montana                     26.6               40.5                13.9
##  6 NV    Nevada                      27.3               41.0                13.6
##  7 RI    Rhode Island                25.6               38.8                13.2
##  8 AZ    Arizona                     20.3               33.3                13.0
##  9 CO    Colorado                    25.2               37.1                12.0
## 10 FL    Florida                     21.1               32.7                11.5
## # ... with 40 more rows
…
