An Analysis of Home Values & Mortgage Budgeting
…
## `summarise()` has grouped output by 'State'. You can override using the
## `.groups` argument.

pandemic_housing <- housing_jan_2020 %>%
  inner_join(housing_march_2022, by = 'State', suffix = c("_jan", "_mar"))

pandemic_housing <- pandemic_housing %>%
  mutate(
    percent_change = ((avg_value_mar-avg_value_jan)/avg_value_jan) * 100
  )

pandemic_housing

## # A tibble: 51 x 6
## # Groups:   State [51]
##    State Date_jan   avg_value_jan Date_mar   avg_value_mar percent_change
##    <chr> <date>             <dbl> <date>             <dbl>          <dbl>
##  1 AK    2020-01-31       268123. 2022-03-31       295374.           10.2
##  2 AL    2020-01-31       133447. 2022-03-31       171796.           28.7
##  3 AR    2020-01-31       103288. 2022-03-31       129796.           25.7
##  4 AZ    2020-01-31       266826. 2022-03-31       407196.           52.6
##  5 CA    2020-01-31       664717. 2022-03-31       877880.           32.1
##  6 CO    2020-01-31       374253. 2022-03-31       514611.           37.5
##  7 CT    2020-01-31       318743. 2022-03-31       418428.           31.3
##  8 DC    2020-01-31       670203. 2022-03-31       744928.           11.1
##  9 DE    2020-01-31       273582. 2022-03-31       362498.           32.5
## 10 FL    2020-01-31       262442. 2022-03-31       383522.           46.1
## # ... with 41 more rows
…
## `summarise()` has grouped output by 'StateName'. You can override using the
## `.groups` argument.

pandemic_inventory <- inventory_jan_2020 %>%
  inner_join(inventory_march_2022, by = 'StateName', suffix = c("_jan", "_mar"))

pandemic_inventory <- pandemic_inventory %>%
  mutate(
    percentage_change = ((avg_inventory_mar-avg_inventory_jan)/avg_inventory_jan) * 100
  )

pandemic_inventory

## # A tibble: 51 x 6
## # Groups:   StateName [51]
##    StateName Date_jan   avg_inventory_jan Date_mar   avg_inventory_mar
##    <chr>     <date>                 <dbl> <date>                 <dbl>
##  1 AK        2020-01-31              528. 2022-03-31              249.
##  2 AL        2020-01-31             1133. 2022-03-31              577.
##  3 AR        2020-01-31              708. 2022-03-31              321.
##  4 AZ        2020-01-31             3109. 2022-03-31             2041.
##  5 CA        2020-01-31             2506. 2022-03-31             1556.
##  6 CO        2020-01-31             1587. 2022-03-31              740.
##  7 CT        2020-01-31             3319. 2022-03-31             1226.
##  8 DC        2020-01-31            18247  2022-03-31            11730 
##  9 DE        2020-01-31             2931  2022-03-31             1140.
## 10 FL        2020-01-31             6512. 2022-03-31             2709.
## # ... with 41 more rows, and 1 more variable: percentage_change <dbl>
…
pandemic_housing_final <- pandemic_housing_final %>%
  mutate(
    monthly_payment_jan = pmt((jan_rate/100)/12, 30*12, avg_mortgage_loan_jan, 0),
    monthly_payment_mar = pmt((mar_rate/100)/12, 30*12, avg_mortgage_loan_mar, 0),
    payment_difference = monthly_payment_jan - monthly_payment_mar,
    mortgage_percent_of_wages_jan = ((abs(monthly_payment_jan)*12)/annual_2020_wages)*100,
    mortgage_percent_of_wages_mar = ((abs(monthly_payment_mar)*12)/annual_2021_wages)*100,
    budget_change_as_percentage_of_wages = mortgage_percent_of_wages_mar - mortgage_percent_of_wages_jan
  )

pandemic_housing_final

## # A tibble: 50 x 23
## # Groups:   State [50]
##    State Date_jan   avg_value_jan Date_mar   avg_value_mar percent_change_price
##    <chr> <date>             <dbl> <date>             <dbl>                <dbl>
##  1 AK    2020-01-31       268123. 2022-03-31       295374.                 10.2
##  2 AL    2020-01-31       133447. 2022-03-31       171796.                 28.7
##  3 AR    2020-01-31       103288. 2022-03-31       129796.                 25.7
##  4 AZ    2020-01-31       266826. 2022-03-31       407196.                 52.6
##  5 CA    2020-01-31       664717. 2022-03-31       877880.                 32.1
##  6 CO    2020-01-31       374253. 2022-03-31       514611.                 37.5
##  7 CT    2020-01-31       318743. 2022-03-31       418428.                 31.3
##  8 DE    2020-01-31       273582. 2022-03-31       362498.                 32.5
##  9 FL    2020-01-31       262442. 2022-03-31       383522.                 46.1
## 10 GA    2020-01-31       176306. 2022-03-31       239172.                 35.7
## # ... with 40 more rows, and 17 more variables: avg_mortgage_loan_jan <dbl>,
## #   avg_mortgage_loan_mar <dbl>, jan_rate <dbl>, mar_rate <dbl>,
## #   state_name <chr>, percent_change_wage <dbl>,
## #   september_2020_avg_weekly_wages_dollars <dbl>,
## #   september_2021_avg_weekly_wages_dollars <dbl>, net_change_dollars <dbl>,
## #   annual_2020_wages <dbl>, annual_2021_wages <dbl>,
## #   monthly_payment_jan <dbl>, monthly_payment_mar <dbl>, ...
…
